,0
0,-1.0
1,-1.0073597056117756
2,-1.0147194112235511
3,-1.0220791168353265
4,-1.029438822447102
5,-1.0367985280588776
6,-1.0441582336706532
7,-1.0515179392824288
8,-1.0588776448942043
9,-1.0662373505059797
10,-1.0735970561177552
11,-1.0809567617295308
12,-1.0883164673413064
13,-1.095676172953082
14,-1.1030358785648575
15,-1.1103955841766329
16,-1.1177552897884084
17,-1.125114995400184
18,-1.1324747010119596
19,-1.1398344066237351
20,-1.1471941122355105
21,-1.154553817847286
22,-1.1619135234590616
23,-1.1692732290708372
24,-1.1766329346826128
25,-1.183992640294388
26,-1.1913523459061637
27,-1.1987120515179392
28,-1.2060717571297148
29,-1.2134314627414904
30,-1.220791168353266
31,-1.2281508739650413
32,-1.2355105795768169
33,-1.2428702851885924
34,-1.250229990800368
35,-1.2575896964121436
36,-1.2649494020239191
37,-1.2723091076356945
38,-1.27966881324747
39,-1.2870285188592456
40,-1.2943882244710212
41,-1.3017479300827968
42,-1.3091076356945721
43,-1.3164673413063477
44,-1.3238270469181233
45,-1.3311867525298988
46,-1.3385464581416744
47,-1.3459061637534497
48,-1.3532658693652255
49,-1.3606255749770009
50,-1.3679852805887764
51,-1.375344986200552
52,-1.3827046918123276
53,-1.3900643974241031
54,-1.3974241030358785
55,-1.404783808647654
56,-1.4121435142594296
57,-1.4195032198712052
58,-1.4268629254829808
59,-1.4342226310947561
60,-1.4415823367065317
61,-1.4489420423183073
62,-1.4563017479300828
63,-1.4636614535418584
64,-1.4710211591536337
65,-1.4783808647654093
66,-1.4857405703771849
67,-1.4931002759889604
68,-1.500459981600736
69,-1.5078196872125114
70,-1.5151793928242872
71,-1.5225390984360625
72,-1.529898804047838
73,-1.5372585096596136
74,-1.544618215271389
75,-1.5519779208831648
76,-1.5593376264949401
77,-1.5666973321067157
78,-1.5740570377184913
79,-1.5814167433302668
80,-1.5887764489420424
81,-1.5961361545538177
82,-1.6034958601655935
83,-1.6108555657773689
84,-1.6182152713891444
85,-1.62557497700092
86,-1.6329346826126954
87,-1.6402943882244712
88,-1.6476540938362465
89,-1.655013799448022
90,-1.6623735050597976
91,-1.669733210671573
92,-1.6770929162833488
93,-1.6844526218951241
94,-1.6918123275068997
95,-1.6991720331186753
96,-1.7065317387304508
97,-1.7138914443422264
98,-1.7212511499540017
99,-1.7286108555657773
100,-1.7359705611775529
101,-1.7433302667893285
102,-1.750689972401104
103,-1.7580496780128794
104,-1.7654093836246552
105,-1.7727690892364305
106,-1.780128794848206
107,-1.7874885004599816
108,-1.794848206071757
109,-1.8022079116835328
110,-1.8095676172953081
111,-1.8169273229070837
112,-1.8242870285188593
113,-1.8316467341306346
114,-1.8390064397424104
115,-1.8463661453541858
116,-1.8537258509659613
117,-1.8610855565777369
118,-1.8684452621895125
119,-1.875804967801288
120,-1.8831646734130634
121,-1.8905243790248392
122,-1.8978840846366145
123,-1.90524379024839
124,-1.9126034958601656
125,-1.919963201471941
126,-1.9273229070837168
127,-1.9346826126954921
128,-1.9420423183072677
129,-1.9494020239190433
130,-1.9567617295308186
131,-1.9641214351425944
132,-1.9714811407543698
133,-1.9788408463661453
134,-1.986200551977921
135,-1.9935602575896962
136,-2.000919963201472
137,-2.0082796688132474
138,-2.0156393744250227
139,-2.0229990800367985
140,-2.0303587856485743
141,-2.0377184912603497
142,-2.045078196872125
143,-2.0524379024839003
144,-2.059797608095676
145,-2.067157313707452
146,-2.0745170193192273
147,-2.0818767249310026
148,-2.089236430542778
149,-2.0965961361545538
150,-2.1039558417663295
151,-2.111315547378105
152,-2.1186752529898802
153,-2.126034958601656
154,-2.1333946642134314
155,-2.140754369825207
156,-2.1481140754369825
157,-2.155473781048758
158,-2.1628334866605337
159,-2.170193192272309
160,-2.177552897884085
161,-2.18491260349586
162,-2.1922723091076355
163,-2.1996320147194113
164,-2.206991720331187
165,-2.2143514259429624
166,-2.2217111315547378
167,-2.229070837166513
168,-2.236430542778289
169,-2.2437902483900647
170,-2.25114995400184
171,-2.2585096596136154
172,-2.2658693652253907
173,-2.2732290708371665
174,-2.2805887764489423
175,-2.2879484820607177
176,-2.295308187672493
177,-2.3026678932842684
178,-2.310027598896044
179,-2.31738730450782
180,-2.3247470101195953
181,-2.3321067157313706
182,-2.339466421343146
183,-2.3468261269549218
184,-2.3541858325666976
185,-2.361545538178473
186,-2.3689052437902482
187,-2.3762649494020236
188,-2.3836246550137994
189,-2.390984360625575
190,-2.3983440662373505
191,-2.405703771849126
192,-2.4130634774609017
193,-2.420423183072677
194,-2.427782888684453
195,-2.435142594296228
196,-2.4425022999080035
197,-2.4498620055197793
198,-2.4572217111315546
199,-2.4645814167433304
200,-2.4719411223551058
201,-2.479300827966881
202,-2.486660533578657
203,-2.4940202391904327
204,-2.501379944802208
205,-2.5087396504139834
206,-2.5160993560257587
207,-2.5234590616375345
208,-2.5308187672493103
209,-2.5381784728610857
210,-2.545538178472861
211,-2.5528978840846364
212,-2.560257589696412
213,-2.567617295308188
214,-2.5749770009199633
215,-2.5823367065317386
216,-2.589696412143514
217,-2.5970561177552898
218,-2.6044158233670656
219,-2.611775528978841
220,-2.6191352345906163
221,-2.6264949402023916
222,-2.6338546458141674
223,-2.641214351425943
224,-2.6485740570377185
225,-2.655933762649494
226,-2.6632934682612692
227,-2.670653173873045
228,-2.678012879484821
229,-2.685372585096596
230,-2.6927322907083715
231,-2.700091996320147
232,-2.7074517019319226
233,-2.7148114075436984
234,-2.7221711131554738
235,-2.729530818767249
236,-2.736890524379025
237,-2.7442502299908003
238,-2.751609935602576
239,-2.7589696412143514
240,-2.7663293468261267
241,-2.7736890524379025
242,-2.7810487580496783
243,-2.7884084636614537
244,-2.795768169273229
245,-2.8031278748850044
246,-2.81048758049678
247,-2.817847286108556
248,-2.8252069917203313
249,-2.8325666973321066
250,-2.839926402943882
251,-2.847286108555658
252,-2.8546458141674336
253,-2.862005519779209
254,-2.8693652253909843
255,-2.8767249310027596
256,-2.8840846366145354
257,-2.891444342226311
258,-2.8988040478380865
259,-2.906163753449862
260,-2.9135234590616372
261,-2.920883164673413
262,-2.928242870285189
263,-2.935602575896964
264,-2.9429622815087395
265,-2.950321987120515
266,-2.9576816927322906
267,-2.9650413983440664
268,-2.972401103955842
269,-2.979760809567617
270,-2.9871205151793925
271,-2.9944802207911683
272,-3.001839926402944
273,-3.0091996320147194
274,-3.0165593376264948
275,-3.0239190432382705
276,-3.031278748850046
277,-3.0386384544618217
278,-3.045998160073597
279,-3.0533578656853724
280,-3.060717571297148
281,-3.0680772769089235
282,-3.0754369825206993
283,-3.0827966881324746
284,-3.09015639374425
285,-3.097516099356026
286,-3.104875804967801
287,-3.112235510579577
288,-3.1195952161913523
289,-3.126954921803128
290,-3.1343146274149034
291,-3.1416743330266788
292,-3.1490340386384545
293,-3.15639374425023
294,-3.1637534498620057
295,-3.171113155473781
296,-3.1784728610855564
297,-3.185832566697332
298,-3.1931922723091075
299,-3.2005519779208833
300,-3.2079116835326587
301,-3.215271389144434
302,-3.22263109475621
303,-3.229990800367985
304,-3.237350505979761
305,-3.2447102115915363
306,-3.252069917203312
307,-3.2594296228150874
308,-3.2667893284268628
309,-3.2741490340386386
310,-3.281508739650414
311,-3.2888684452621897
312,-3.296228150873965
313,-3.3035878564857404
314,-3.310947562097516
315,-3.3183072677092915
316,-3.3256669733210673
317,-3.3330266789328427
318,-3.340386384544618
319,-3.347746090156394
320,-3.355105795768169
321,-3.362465501379945
322,-3.3698252069917203
323,-3.3771849126034956
324,-3.3845446182152714
325,-3.3919043238270468
326,-3.3992640294388226
327,-3.406623735050598
328,-3.4139834406623737
329,-3.421343146274149
330,-3.4287028518859244
331,-3.4360625574977
332,-3.4434222631094755
333,-3.4507819687212513
334,-3.4581416743330267
335,-3.465501379944802
336,-3.472861085556578
337,-3.480220791168353
338,-3.487580496780129
339,-3.4949402023919043
340,-3.5022999080036796
341,-3.5096596136154554
342,-3.5170193192272308
343,-3.5243790248390066
344,-3.531738730450782
345,-3.5390984360625577
346,-3.546458141674333
347,-3.5538178472861084
348,-3.561177552897884
349,-3.5685372585096595
350,-3.5758969641214353
351,-3.5832566697332107
352,-3.590616375344986
353,-3.597976080956762
354,-3.605335786568537
355,-3.612695492180313
356,-3.6200551977920883
357,-3.6274149034038636
358,-3.6347746090156394
359,-3.6421343146274148
360,-3.6494940202391906
361,-3.656853725850966
362,-3.6642134314627413
363,-3.671573137074517
364,-3.6789328426862924
365,-3.686292548298068
366,-3.6936522539098435
367,-3.7010119595216193
368,-3.7083716651333947
369,-3.71573137074517
370,-3.723091076356946
371,-3.730450781968721
372,-3.737810487580497
373,-3.7451701931922723
374,-3.7525298988040476
375,-3.7598896044158234
376,-3.7672493100275988
377,-3.7746090156393746
378,-3.78196872125115
379,-3.7893284268629253
380,-3.796688132474701
381,-3.8040478380864764
382,-3.811407543698252
383,-3.8187672493100275
384,-3.8261269549218033
385,-3.8334866605335787
386,-3.840846366145354
387,-3.84820607175713
388,-3.855565777368905
389,-3.862925482980681
390,-3.8702851885924563
391,-3.8776448942042316
392,-3.8850045998160074
393,-3.892364305427783
394,-3.8997240110395586
395,-3.907083716651334
396,-3.9144434222631093
397,-3.921803127874885
398,-3.9291628334866604
399,-3.936522539098436
400,-3.9438822447102115
401,-3.951241950321987
402,-3.9586016559337627
403,-3.965961361545538
404,-3.973321067157314
405,-3.980680772769089
406,-3.988040478380865
407,-3.9954001839926403
408,-4.002759889604416
409,-4.010119595216191
410,-4.017479300827967
411,-4.024839006439743
412,-4.0321987120515175
413,-4.039558417663294
414,-4.046918123275069
415,-4.054277828886844
416,-4.061637534498621
417,-4.068997240110395
418,-4.076356945722171
419,-4.083716651333947
420,-4.091076356945722
421,-4.098436062557498
422,-4.105795768169273
423,-4.113155473781049
424,-4.120515179392824
425,-4.1278748850046
426,-4.135234590616376
427,-4.14259429622815
428,-4.149954001839927
429,-4.157313707451702
430,-4.164673413063477
431,-4.1720331186752535
432,-4.179392824287028
433,-4.186752529898804
434,-4.1941122355105795
435,-4.201471941122355
436,-4.208831646734131
437,-4.216191352345906
438,-4.223551057957682
439,-4.230910763569457
440,-4.2382704691812325
441,-4.245630174793009
442,-4.252989880404783
443,-4.260349586016559
444,-4.267709291628335
445,-4.27506899724011
446,-4.282428702851886
447,-4.289788408463661
448,-4.297148114075437
449,-4.304507819687212
450,-4.311867525298988
451,-4.319227230910764
452,-4.3265869365225385
453,-4.333946642134315
454,-4.34130634774609
455,-4.348666053357865
456,-4.356025758969642
457,-4.363385464581416
458,-4.370745170193192
459,-4.378104875804968
460,-4.385464581416743
461,-4.392824287028519
462,-4.400183992640294
463,-4.40754369825207
464,-4.414903403863845
465,-4.422263109475621
466,-4.429622815087397
467,-4.436982520699172
468,-4.4443422263109476
469,-4.451701931922723
470,-4.459061637534498
471,-4.4664213431462745
472,-4.47378104875805
473,-4.481140754369825
474,-4.4885004599816005
475,-4.495860165593376
476,-4.503219871205152
477,-4.5105795768169274
478,-4.517939282428703
479,-4.525298988040478
480,-4.5326586936522535
481,-4.54001839926403
482,-4.547378104875805
483,-4.55473781048758
484,-4.562097516099357
485,-4.569457221711131
486,-4.576816927322907
487,-4.584176632934683
488,-4.591536338546458
489,-4.598896044158234
490,-4.606255749770009
491,-4.613615455381785
492,-4.62097516099356
493,-4.628334866605336
494,-4.635694572217112
495,-4.643054277828886
496,-4.650413983440663
497,-4.657773689052438
498,-4.665133394664213
499,-4.6724931002759895
500,-4.679852805887764
501,-4.68721251149954
502,-4.694572217111316
503,-4.701931922723091
504,-4.709291628334867
505,-4.716651333946642
506,-4.724011039558418
507,-4.731370745170193
508,-4.7387304507819685
509,-4.746090156393745
510,-4.753449862005519
511,-4.7608095676172955
512,-4.768169273229071
513,-4.775528978840846
514,-4.782888684452622
515,-4.790248390064397
516,-4.797608095676173
517,-4.804967801287948
518,-4.812327506899724
519,-4.8196872125115
520,-4.8270469181232745
521,-4.834406623735051
522,-4.841766329346826
523,-4.849126034958601
524,-4.856485740570378
525,-4.863845446182152
526,-4.871205151793928
527,-4.878564857405704
528,-4.885924563017479
529,-4.893284268629255
530,-4.90064397424103
531,-4.908003679852806
532,-4.915363385464581
533,-4.922723091076357
534,-4.930082796688133
535,-4.937442502299907
536,-4.944802207911684
537,-4.952161913523459
538,-4.959521619135234
539,-4.9668813247470105
540,-4.974241030358785
541,-4.981600735970561
542,-4.9889604415823365
543,-4.996320147194112
544,-5.003679852805888
545,-5.0110395584176635
546,-5.018399264029439
547,-5.025758969641214
548,-5.0331186752529895
549,-5.040478380864766
550,-5.047838086476541
551,-5.055197792088316
552,-5.062557497700092
553,-5.069917203311867
554,-5.077276908923643
555,-5.084636614535419
556,-5.091996320147194
557,-5.099356025758969
558,-5.106715731370745
559,-5.114075436982521
560,-5.121435142594296
561,-5.128794848206072
562,-5.136154553817847
563,-5.143514259429622
564,-5.150873965041399
565,-5.158233670653174
566,-5.165593376264949
567,-5.172953081876725
568,-5.1803127874885
569,-5.187672493100276
570,-5.195032198712052
571,-5.202391904323827
572,-5.209751609935602
573,-5.2171113155473785
574,-5.224471021159154
575,-5.231830726770929
576,-5.2391904323827045
577,-5.24655013799448
578,-5.253909843606256
579,-5.2612695492180315
580,-5.268629254829807
581,-5.275988960441582
582,-5.2833486660533575
583,-5.290708371665134
584,-5.298068077276909
585,-5.305427782888684
586,-5.31278748850046
587,-5.320147194112235
588,-5.327506899724011
589,-5.334866605335787
590,-5.342226310947562
591,-5.349586016559337
592,-5.356945722171113
593,-5.364305427782889
594,-5.371665133394664
595,-5.37902483900644
596,-5.386384544618215
597,-5.39374425022999
598,-5.401103955841767
599,-5.408463661453542
600,-5.415823367065317
601,-5.423183072677093
602,-5.430542778288868
603,-5.437902483900644
604,-5.44526218951242
605,-5.452621895124195
606,-5.45998160073597
607,-5.467341306347746
608,-5.474701011959522
609,-5.482060717571297
610,-5.4894204231830726
611,-5.496780128794848
612,-5.504139834406624
613,-5.5114995400183995
614,-5.518859245630175
615,-5.52621895124195
616,-5.5335786568537255
617,-5.540938362465502
618,-5.548298068077277
619,-5.5556577736890524
620,-5.563017479300828
621,-5.570377184912603
622,-5.577736890524379
623,-5.585096596136155
624,-5.59245630174793
625,-5.599816007359705
626,-5.607175712971481
627,-5.614535418583257
628,-5.621895124195032
629,-5.629254829806808
630,-5.636614535418583
631,-5.643974241030358
632,-5.651333946642135
633,-5.65869365225391
634,-5.666053357865685
635,-5.673413063477461
636,-5.680772769089236
637,-5.688132474701012
638,-5.695492180312788
639,-5.702851885924563
640,-5.710211591536338
641,-5.717571297148114
642,-5.72493100275989
643,-5.732290708371665
644,-5.739650413983441
645,-5.747010119595216
646,-5.754369825206991
647,-5.7617295308187675
648,-5.769089236430543
649,-5.776448942042318
650,-5.7838086476540935
651,-5.79116835326587
652,-5.798528058877645
653,-5.8058877644894205
654,-5.813247470101196
655,-5.820607175712971
656,-5.827966881324747
657,-5.835326586936523
658,-5.842686292548298
659,-5.850045998160073
660,-5.857405703771849
661,-5.864765409383625
662,-5.8721251149954
663,-5.879484820607176
664,-5.886844526218951
665,-5.894204231830726
666,-5.901563937442503
667,-5.908923643054278
668,-5.916283348666053
669,-5.923643054277829
670,-5.931002759889604
671,-5.93836246550138
672,-5.945722171113156
673,-5.953081876724931
674,-5.960441582336706
675,-5.967801287948482
676,-5.975160993560258
677,-5.982520699172033
678,-5.989880404783809
679,-5.997240110395584
680,-6.004599816007359
681,-6.0119595216191355
682,-6.019319227230911
683,-6.026678932842686
684,-6.0340386384544615
685,-6.041398344066237
686,-6.048758049678013
687,-6.0561177552897885
688,-6.063477460901564
689,-6.070837166513339
690,-6.078196872125115
691,-6.085556577736891
692,-6.092916283348666
693,-6.100275988960441
694,-6.107635694572217
695,-6.114995400183993
696,-6.122355105795768
697,-6.129714811407544
698,-6.137074517019319
699,-6.144434222631094
700,-6.151793928242871
701,-6.159153633854646
702,-6.166513339466421
703,-6.173873045078197
704,-6.181232750689972
705,-6.188592456301748
706,-6.195952161913524
707,-6.203311867525299
708,-6.210671573137074
709,-6.21803127874885
710,-6.225390984360626
711,-6.232750689972401
712,-6.240110395584177
713,-6.247470101195952
714,-6.254829806807727
715,-6.2621895124195035
716,-6.269549218031279
717,-6.276908923643054
718,-6.2842686292548295
719,-6.291628334866605
720,-6.298988040478381
721,-6.3063477460901565
722,-6.313707451701932
723,-6.321067157313707
724,-6.3284268629254825
725,-6.335786568537259
726,-6.343146274149034
727,-6.350505979760809
728,-6.357865685372585
729,-6.365225390984361
730,-6.372585096596136
731,-6.379944802207912
732,-6.387304507819687
733,-6.394664213431462
734,-6.402023919043239
735,-6.409383624655014
736,-6.416743330266789
737,-6.424103035878565
738,-6.43146274149034
739,-6.438822447102116
740,-6.446182152713892
741,-6.453541858325667
742,-6.460901563937442
743,-6.468261269549218
744,-6.475620975160994
745,-6.482980680772769
746,-6.490340386384545
747,-6.49770009199632
748,-6.505059797608095
749,-6.5124195032198715
750,-6.519779208831647
751,-6.527138914443422
752,-6.5344986200551975
753,-6.541858325666973
754,-6.549218031278749
755,-6.5565777368905245
756,-6.5639374425023
757,-6.571297148114075
758,-6.5786568537258505
759,-6.586016559337627
760,-6.593376264949402
761,-6.6007359705611774
762,-6.608095676172953
763,-6.615455381784728
764,-6.622815087396504
765,-6.63017479300828
766,-6.637534498620055
767,-6.64489420423183
768,-6.652253909843607
769,-6.659613615455382
770,-6.666973321067157
771,-6.674333026678933
772,-6.681692732290708
773,-6.689052437902484
774,-6.69641214351426
775,-6.703771849126035
776,-6.71113155473781
777,-6.718491260349586
778,-6.725850965961362
779,-6.733210671573137
780,-6.740570377184913
781,-6.747930082796688
782,-6.755289788408463
783,-6.7626494940202395
784,-6.770009199632015
785,-6.77736890524379
786,-6.784728610855566
787,-6.792088316467341
788,-6.799448022079117
789,-6.8068077276908925
790,-6.814167433302668
791,-6.821527138914443
792,-6.8288868445262185
793,-6.836246550137995
794,-6.84360625574977
795,-6.8509659613615455
796,-6.858325666973321
797,-6.865685372585096
798,-6.873045078196872
799,-6.880404783808648
800,-6.887764489420423
801,-6.895124195032198
802,-6.902483900643974
803,-6.90984360625575
804,-6.917203311867525
805,-6.924563017479301
806,-6.931922723091076
807,-6.939282428702851
808,-6.946642134314628
809,-6.954001839926403
810,-6.961361545538178
811,-6.968721251149954
812,-6.97608095676173
813,-6.983440662373505
814,-6.990800367985281
815,-6.998160073597056
816,-7.005519779208831
817,-7.0128794848206075
818,-7.020239190432383
819,-7.027598896044158
820,-7.034958601655934
821,-7.042318307267709
822,-7.049678012879485
823,-7.0570377184912605
824,-7.064397424103036
825,-7.071757129714811
826,-7.0791168353265865
827,-7.086476540938363
828,-7.093836246550138
829,-7.1011959521619135
830,-7.108555657773689
831,-7.115915363385464
832,-7.12327506899724
833,-7.130634774609016
834,-7.137994480220791
835,-7.145354185832566
836,-7.152713891444342
837,-7.160073597056118
838,-7.167433302667893
839,-7.174793008279669
840,-7.182152713891444
841,-7.189512419503219
842,-7.196872125114996
843,-7.204231830726771
844,-7.211591536338546
845,-7.218951241950322
846,-7.226310947562097
847,-7.233670653173873
848,-7.241030358785649
849,-7.248390064397424
850,-7.255749770009199
851,-7.2631094756209755
852,-7.270469181232751
853,-7.277828886844526
854,-7.285188592456302
855,-7.292548298068077
856,-7.299908003679853
857,-7.3072677092916285
858,-7.314627414903404
859,-7.321987120515179
860,-7.3293468261269545
861,-7.336706531738731
862,-7.344066237350506
863,-7.3514259429622815
864,-7.358785648574057
865,-7.366145354185832
866,-7.373505059797608
867,-7.380864765409384
868,-7.388224471021159
869,-7.395584176632934
870,-7.40294388224471
871,-7.410303587856486
872,-7.417663293468261
873,-7.425022999080037
874,-7.432382704691812
875,-7.439742410303587
876,-7.447102115915364
877,-7.454461821527139
878,-7.461821527138914
879,-7.46918123275069
880,-7.476540938362465
881,-7.483900643974241
882,-7.491260349586017
883,-7.498620055197792
884,-7.505979760809567
885,-7.513339466421343
886,-7.520699172033119
887,-7.528058877644894
888,-7.53541858325667
889,-7.542778288868445
890,-7.550137994480221
891,-7.5574977000919965
892,-7.564857405703772
893,-7.572217111315547
894,-7.5795768169273225
895,-7.586936522539099
896,-7.594296228150874
897,-7.6016559337626495
898,-7.609015639374425
899,-7.6163753449862
900,-7.623735050597976
901,-7.631094756209752
902,-7.638454461821527
903,-7.645814167433302
904,-7.653173873045078
905,-7.660533578656854
906,-7.667893284268629
907,-7.675252989880405
908,-7.68261269549218
909,-7.689972401103955
910,-7.697332106715732
911,-7.704691812327507
912,-7.712051517939282
913,-7.719411223551058
914,-7.726770929162833
915,-7.734130634774609
916,-7.741490340386385
917,-7.74885004599816
918,-7.756209751609935
919,-7.763569457221711
920,-7.770929162833487
921,-7.778288868445262
922,-7.785648574057038
923,-7.793008279668813
924,-7.800367985280588
925,-7.8077276908923645
926,-7.81508739650414
927,-7.822447102115915
928,-7.8298068077276906
929,-7.837166513339467
930,-7.844526218951242
931,-7.8518859245630175
932,-7.859245630174793
933,-7.866605335786568
934,-7.873965041398344
935,-7.88132474701012
936,-7.888684452621895
937,-7.8960441582336705
938,-7.903403863845446
939,-7.910763569457222
940,-7.918123275068997
941,-7.925482980680773
942,-7.932842686292548
943,-7.940202391904323
944,-7.9475620975161
945,-7.954921803127875
946,-7.96228150873965
947,-7.969641214351426
948,-7.977000919963201
949,-7.984360625574977
950,-7.991720331186753
951,-7.999080036798528
952,-8.006439742410304
953,-8.013799448022079
954,-8.021159153633855
955,-8.02851885924563
956,-8.035878564857406
957,-8.043238270469182
958,-8.050597976080956
959,-8.057957681692733
960,-8.065317387304507
961,-8.072677092916283
962,-8.08003679852806
963,-8.087396504139834
964,-8.09475620975161
965,-8.102115915363385
966,-8.10947562097516
967,-8.116835326586937
968,-8.124195032198713
969,-8.131554737810488
970,-8.138914443422262
971,-8.146274149034038
972,-8.153633854645815
973,-8.160993560257591
974,-8.168353265869365
975,-8.17571297148114
976,-8.183072677092916
977,-8.190432382704692
978,-8.197792088316469
979,-8.205151793928243
980,-8.212511499540017
981,-8.219871205151794
982,-8.22723091076357
983,-8.234590616375346
984,-8.24195032198712
985,-8.249310027598895
986,-8.256669733210671
987,-8.264029438822448
988,-8.271389144434224
989,-8.278748850045998
990,-8.286108555657773
991,-8.293468261269549
992,-8.300827966881325
993,-8.308187672493101
994,-8.315547378104876
995,-8.32290708371665
996,-8.330266789328427
997,-8.337626494940203
998,-8.344986200551979
999,-8.352345906163753
1000,-8.359705611775528
1001,-8.367065317387304
1002,-8.37442502299908
1003,-8.381784728610857
1004,-8.389144434222631
1005,-8.396504139834406
1006,-8.403863845446182
1007,-8.411223551057958
1008,-8.418583256669734
1009,-8.425942962281509
1010,-8.433302667893283
1011,-8.44066237350506
1012,-8.448022079116836
1013,-8.455381784728612
1014,-8.462741490340386
1015,-8.47010119595216
1016,-8.477460901563937
1017,-8.484820607175713
1018,-8.49218031278749
1019,-8.499540018399264
1020,-8.506899724011038
1021,-8.514259429622815
1022,-8.521619135234591
1023,-8.528978840846367
1024,-8.536338546458142
1025,-8.543698252069916
1026,-8.551057957681692
1027,-8.558417663293469
1028,-8.565777368905245
1029,-8.57313707451702
1030,-8.580496780128794
1031,-8.58785648574057
1032,-8.595216191352346
1033,-8.602575896964122
1034,-8.609935602575897
1035,-8.617295308187671
1036,-8.624655013799448
1037,-8.632014719411224
1038,-8.639374425023
1039,-8.646734130634774
1040,-8.654093836246549
1041,-8.661453541858325
1042,-8.668813247470101
1043,-8.676172953081878
1044,-8.683532658693652
1045,-8.690892364305427
1046,-8.698252069917203
1047,-8.705611775528979
1048,-8.712971481140755
1049,-8.72033118675253
1050,-8.727690892364304
1051,-8.73505059797608
1052,-8.742410303587857
1053,-8.749770009199633
1054,-8.757129714811407
1055,-8.764489420423182
1056,-8.771849126034958
1057,-8.779208831646734
1058,-8.78656853725851
1059,-8.793928242870285
1060,-8.80128794848206
1061,-8.808647654093836
1062,-8.816007359705612
1063,-8.823367065317388
1064,-8.830726770929163
1065,-8.838086476540937
1066,-8.845446182152713
1067,-8.85280588776449
1068,-8.860165593376266
1069,-8.86752529898804
1070,-8.874885004599815
1071,-8.882244710211591
1072,-8.889604415823367
1073,-8.896964121435143
1074,-8.904323827046918
1075,-8.911683532658692
1076,-8.919043238270469
1077,-8.926402943882245
1078,-8.933762649494021
1079,-8.941122355105795
1080,-8.94848206071757
1081,-8.955841766329346
1082,-8.963201471941122
1083,-8.970561177552899
1084,-8.977920883164673
1085,-8.98528058877645
1086,-8.992640294388224
1087,-9.0
1088,-9.007359705611776
1089,-9.01471941122355
1090,-9.022079116835327
1091,-9.029438822447101
1092,-9.036798528058878
1093,-9.044158233670654
1094,-9.051517939282428
1095,-9.058877644894205
1096,-9.066237350505979
1097,-9.073597056117755
1098,-9.080956761729531
1099,-9.088316467341306
1100,-9.095676172953082
1101,-9.103035878564857
1102,-9.110395584176633
1103,-9.117755289788409
1104,-9.125114995400184
1105,-9.13247470101196
1106,-9.139834406623734
1107,-9.14719411223551
1108,-9.154553817847287
1109,-9.161913523459061
1110,-9.169273229070837
1111,-9.176632934682612
1112,-9.183992640294388
1113,-9.191352345906164
1114,-9.198712051517939
1115,-9.206071757129715
1116,-9.21343146274149
1117,-9.220791168353266
1118,-9.228150873965042
1119,-9.235510579576816
1120,-9.242870285188593
1121,-9.250229990800367
1122,-9.257589696412143
1123,-9.26494940202392
1124,-9.272309107635694
1125,-9.27966881324747
1126,-9.287028518859245
1127,-9.294388224471021
1128,-9.301747930082797
1129,-9.309107635694572
1130,-9.316467341306348
1131,-9.323827046918122
1132,-9.331186752529899
1133,-9.338546458141675
1134,-9.34590616375345
1135,-9.353265869365226
1136,-9.360625574977
1137,-9.367985280588776
1138,-9.375344986200552
1139,-9.382704691812327
1140,-9.390064397424103
1141,-9.397424103035878
1142,-9.404783808647654
1143,-9.41214351425943
1144,-9.419503219871205
1145,-9.42686292548298
1146,-9.434222631094757
1147,-9.441582336706531
1148,-9.448942042318308
1149,-9.456301747930082
1150,-9.463661453541858
1151,-9.471021159153635
1152,-9.478380864765409
1153,-9.485740570377185
1154,-9.49310027598896
1155,-9.500459981600736
1156,-9.507819687212512
1157,-9.515179392824287
1158,-9.522539098436063
1159,-9.529898804047837
1160,-9.537258509659614
1161,-9.54461821527139
1162,-9.551977920883164
1163,-9.55933762649494
1164,-9.566697332106715
1165,-9.574057037718491
1166,-9.581416743330267
1167,-9.588776448942042
1168,-9.596136154553818
1169,-9.603495860165593
1170,-9.610855565777369
1171,-9.618215271389145
1172,-9.62557497700092
1173,-9.632934682612696
1174,-9.64029438822447
1175,-9.647654093836247
1176,-9.655013799448023
1177,-9.662373505059797
1178,-9.669733210671573
1179,-9.677092916283348
1180,-9.684452621895124
1181,-9.6918123275069
1182,-9.699172033118675
1183,-9.706531738730451
1184,-9.713891444342226
1185,-9.721251149954002
1186,-9.728610855565778
1187,-9.735970561177552
1188,-9.743330266789329
1189,-9.750689972401103
1190,-9.75804967801288
1191,-9.765409383624656
1192,-9.77276908923643
1193,-9.780128794848206
1194,-9.78748850045998
1195,-9.794848206071757
1196,-9.802207911683533
1197,-9.809567617295308
1198,-9.816927322907084
1199,-9.824287028518858
1200,-9.831646734130635
1201,-9.83900643974241
1202,-9.846366145354185
1203,-9.853725850965962
1204,-9.861085556577736
1205,-9.868445262189512
1206,-9.875804967801288
1207,-9.883164673413063
1208,-9.89052437902484
1209,-9.897884084636614
1210,-9.90524379024839
1211,-9.912603495860166
1212,-9.91996320147194
1213,-9.927322907083717
1214,-9.934682612695491
1215,-9.942042318307267
1216,-9.949402023919044
1217,-9.956761729530818
1218,-9.964121435142594
1219,-9.971481140754369
1220,-9.978840846366145
1221,-9.986200551977921
1222,-9.993560257589696
1223,-10.000919963201472
1224,-10.008279668813248
1225,-10.015639374425023
1226,-10.022999080036799
1227,-10.030358785648573
1228,-10.03771849126035
1229,-10.045078196872126
1230,-10.0524379024839
1231,-10.059797608095677
1232,-10.067157313707451
1233,-10.074517019319227
1234,-10.081876724931004
1235,-10.089236430542778
1236,-10.096596136154554
1237,-10.103955841766329
1238,-10.111315547378105
1239,-10.118675252989881
1240,-10.126034958601656
1241,-10.133394664213432
1242,-10.140754369825206
1243,-10.148114075436983
1244,-10.155473781048759
1245,-10.162833486660533
1246,-10.17019319227231
1247,-10.177552897884084
1248,-10.18491260349586
1249,-10.192272309107636
1250,-10.19963201471941
1251,-10.206991720331187
1252,-10.214351425942962
1253,-10.221711131554738
1254,-10.229070837166514
1255,-10.236430542778288
1256,-10.243790248390065
1257,-10.25114995400184
1258,-10.258509659613615
1259,-10.265869365225392
1260,-10.273229070837166
1261,-10.280588776448942
1262,-10.287948482060717
1263,-10.295308187672493
1264,-10.30266789328427
1265,-10.310027598896044
1266,-10.31738730450782
1267,-10.324747010119594
1268,-10.33210671573137
1269,-10.339466421343147
1270,-10.346826126954921
1271,-10.354185832566698
1272,-10.361545538178472
1273,-10.368905243790248
1274,-10.376264949402024
1275,-10.383624655013799
1276,-10.390984360625575
1277,-10.39834406623735
1278,-10.405703771849126
1279,-10.413063477460902
1280,-10.420423183072677
1281,-10.427782888684453
1282,-10.435142594296227
1283,-10.442502299908003
1284,-10.44986200551978
1285,-10.457221711131554
1286,-10.46458141674333
1287,-10.471941122355105
1288,-10.479300827966881
1289,-10.486660533578657
1290,-10.494020239190432
1291,-10.501379944802208
1292,-10.508739650413983
1293,-10.516099356025759
1294,-10.523459061637535
1295,-10.53081876724931
1296,-10.538178472861086
1297,-10.54553817847286
1298,-10.552897884084636
1299,-10.560257589696413
1300,-10.567617295308187
1301,-10.574977000919963
1302,-10.58233670653174
1303,-10.589696412143514
1304,-10.59705611775529
1305,-10.604415823367065
1306,-10.611775528978841
1307,-10.619135234590617
1308,-10.626494940202392
1309,-10.633854645814168
1310,-10.641214351425942
1311,-10.648574057037719
1312,-10.655933762649495
1313,-10.66329346826127
1314,-10.670653173873045
1315,-10.67801287948482
1316,-10.685372585096596
1317,-10.692732290708372
1318,-10.700091996320147
1319,-10.707451701931923
1320,-10.714811407543698
1321,-10.722171113155474
1322,-10.72953081876725
1323,-10.736890524379024
1324,-10.7442502299908
1325,-10.751609935602575
1326,-10.758969641214351
1327,-10.766329346826128
1328,-10.773689052437902
1329,-10.781048758049678
1330,-10.788408463661453
1331,-10.795768169273229
1332,-10.803127874885005
1333,-10.81048758049678
1334,-10.817847286108556
1335,-10.82520699172033
1336,-10.832566697332107
1337,-10.839926402943883
1338,-10.847286108555657
1339,-10.854645814167434
1340,-10.862005519779208
1341,-10.869365225390984
1342,-10.87672493100276
1343,-10.884084636614535
1344,-10.891444342226311
1345,-10.898804047838086
1346,-10.906163753449862
1347,-10.913523459061638
1348,-10.920883164673413
1349,-10.928242870285189
1350,-10.935602575896963
1351,-10.94296228150874
1352,-10.950321987120516
1353,-10.95768169273229
1354,-10.965041398344066
1355,-10.972401103955841
1356,-10.979760809567617
1357,-10.987120515179393
1358,-10.994480220791168
1359,-11.001839926402944
1360,-11.009199632014719
1361,-11.016559337626495
1362,-11.023919043238271
1363,-11.031278748850045
1364,-11.038638454461822
1365,-11.045998160073596
1366,-11.053357865685372
1367,-11.060717571297149
1368,-11.068077276908923
1369,-11.0754369825207
1370,-11.082796688132474
1371,-11.09015639374425
1372,-11.097516099356026
1373,-11.1048758049678
1374,-11.112235510579577
1375,-11.119595216191351
1376,-11.126954921803128
1377,-11.134314627414904
1378,-11.141674333026678
1379,-11.149034038638455
1380,-11.15639374425023
1381,-11.163753449862005
1382,-11.171113155473781
1383,-11.178472861085556
1384,-11.185832566697332
1385,-11.193192272309108
1386,-11.200551977920883
1387,-11.207911683532659
1388,-11.215271389144434
1389,-11.22263109475621
1390,-11.229990800367986
1391,-11.23735050597976
1392,-11.244710211591537
1393,-11.252069917203311
1394,-11.259429622815087
1395,-11.266789328426864
1396,-11.274149034038638
1397,-11.281508739650414
1398,-11.288868445262189
1399,-11.296228150873965
1400,-11.303587856485741
1401,-11.310947562097516
1402,-11.318307267709292
1403,-11.325666973321066
1404,-11.333026678932843
1405,-11.340386384544619
1406,-11.347746090156393
1407,-11.35510579576817
1408,-11.362465501379944
1409,-11.36982520699172
1410,-11.377184912603497
1411,-11.384544618215271
1412,-11.391904323827047
1413,-11.399264029438822
1414,-11.406623735050598
1415,-11.413983440662374
1416,-11.421343146274149
1417,-11.428702851885925
1418,-11.4360625574977
1419,-11.443422263109476
1420,-11.450781968721252
1421,-11.458141674333026
1422,-11.465501379944802
1423,-11.472861085556577
1424,-11.480220791168353
1425,-11.48758049678013
1426,-11.494940202391904
1427,-11.50229990800368
1428,-11.509659613615455
1429,-11.51701931922723
1430,-11.524379024839007
1431,-11.531738730450781
1432,-11.539098436062558
1433,-11.546458141674332
1434,-11.553817847286108
1435,-11.561177552897885
1436,-11.568537258509659
1437,-11.575896964121435
1438,-11.58325666973321
1439,-11.590616375344986
1440,-11.597976080956762
1441,-11.605335786568537
1442,-11.612695492180313
1443,-11.620055197792087
1444,-11.627414903403864
1445,-11.63477460901564
1446,-11.642134314627414
1447,-11.64949402023919
1448,-11.656853725850965
1449,-11.664213431462741
1450,-11.671573137074517
1451,-11.678932842686292
1452,-11.686292548298068
1453,-11.693652253909843
1454,-11.701011959521619
1455,-11.708371665133395
1456,-11.71573137074517
1457,-11.723091076356946
1458,-11.730450781968722
1459,-11.737810487580496
1460,-11.745170193192273
1461,-11.752529898804047
1462,-11.759889604415823
1463,-11.7672493100276
1464,-11.774609015639374
1465,-11.78196872125115
1466,-11.789328426862925
1467,-11.796688132474701
1468,-11.804047838086477
1469,-11.811407543698252
1470,-11.818767249310028
1471,-11.826126954921802
1472,-11.833486660533579
1473,-11.840846366145355
1474,-11.84820607175713
1475,-11.855565777368906
1476,-11.86292548298068
1477,-11.870285188592456
1478,-11.877644894204233
1479,-11.885004599816007
1480,-11.892364305427783
1481,-11.899724011039558
1482,-11.907083716651334
1483,-11.91444342226311
1484,-11.921803127874885
1485,-11.92916283348666
1486,-11.936522539098435
1487,-11.943882244710212
1488,-11.951241950321988
1489,-11.958601655933762
1490,-11.965961361545538
1491,-11.973321067157313
1492,-11.98068077276909
1493,-11.988040478380865
1494,-11.99540018399264
1495,-12.002759889604416
1496,-12.01011959521619
1497,-12.017479300827967
1498,-12.024839006439743
1499,-12.032198712051517
1500,-12.039558417663294
1501,-12.046918123275068
1502,-12.054277828886844
1503,-12.06163753449862
1504,-12.068997240110395
1505,-12.076356945722171
1506,-12.083716651333946
1507,-12.091076356945722
1508,-12.098436062557498
1509,-12.105795768169273
1510,-12.113155473781049
1511,-12.120515179392823
1512,-12.1278748850046
1513,-12.135234590616376
1514,-12.14259429622815
1515,-12.149954001839927
1516,-12.157313707451701
1517,-12.164673413063477
1518,-12.172033118675254
1519,-12.179392824287028
1520,-12.186752529898804
1521,-12.194112235510579
1522,-12.201471941122355
1523,-12.208831646734131
1524,-12.216191352345906
1525,-12.223551057957682
1526,-12.230910763569456
1527,-12.238270469181233
1528,-12.245630174793009
1529,-12.252989880404783
1530,-12.26034958601656
1531,-12.267709291628334
1532,-12.27506899724011
1533,-12.282428702851886
1534,-12.28978840846366
1535,-12.297148114075437
1536,-12.304507819687213
1537,-12.311867525298988
1538,-12.319227230910764
1539,-12.326586936522538
1540,-12.333946642134315
1541,-12.341306347746091
1542,-12.348666053357865
1543,-12.356025758969642
1544,-12.363385464581416
1545,-12.370745170193192
1546,-12.378104875804969
1547,-12.385464581416743
1548,-12.39282428702852
1549,-12.400183992640294
1550,-12.40754369825207
1551,-12.414903403863846
1552,-12.42226310947562
1553,-12.429622815087397
1554,-12.436982520699171
1555,-12.444342226310948
1556,-12.451701931922724
1557,-12.459061637534498
1558,-12.466421343146274
1559,-12.473781048758049
1560,-12.481140754369825
1561,-12.488500459981601
1562,-12.495860165593376
1563,-12.503219871205152
1564,-12.510579576816927
1565,-12.517939282428703
1566,-12.525298988040479
1567,-12.532658693652253
1568,-12.54001839926403
1569,-12.547378104875804
1570,-12.55473781048758
1571,-12.562097516099357
1572,-12.569457221711131
1573,-12.576816927322907
1574,-12.584176632934682
1575,-12.591536338546458
1576,-12.598896044158234
1577,-12.606255749770009
1578,-12.613615455381785
1579,-12.62097516099356
1580,-12.628334866605336
1581,-12.635694572217112
1582,-12.643054277828886
1583,-12.650413983440663
1584,-12.657773689052437
1585,-12.665133394664213
1586,-12.67249310027599
1587,-12.679852805887764
1588,-12.68721251149954
1589,-12.694572217111315
1590,-12.701931922723091
1591,-12.709291628334867
1592,-12.716651333946642
1593,-12.724011039558418
1594,-12.731370745170192
1595,-12.738730450781969
1596,-12.746090156393745
1597,-12.75344986200552
1598,-12.760809567617295
1599,-12.76816927322907
1600,-12.775528978840846
1601,-12.782888684452622
1602,-12.790248390064397
1603,-12.797608095676173
1604,-12.804967801287948
1605,-12.812327506899724
1606,-12.8196872125115
1607,-12.827046918123274
1608,-12.83440662373505
1609,-12.841766329346825
1610,-12.849126034958601
1611,-12.856485740570378
1612,-12.863845446182152
1613,-12.871205151793928
1614,-12.878564857405703
1615,-12.885924563017479
1616,-12.893284268629255
1617,-12.90064397424103
1618,-12.908003679852806
1619,-12.915363385464582
1620,-12.922723091076357
1621,-12.930082796688133
1622,-12.937442502299907
1623,-12.944802207911684
1624,-12.95216191352346
1625,-12.959521619135234
1626,-12.96688132474701
1627,-12.974241030358785
1628,-12.981600735970561
1629,-12.988960441582337
1630,-12.996320147194112
1631,-13.003679852805888
1632,-13.011039558417663
1633,-13.018399264029439
1634,-13.025758969641215
1635,-13.03311867525299
1636,-13.040478380864766
1637,-13.04783808647654
1638,-13.055197792088316
1639,-13.062557497700093
1640,-13.069917203311867
1641,-13.077276908923643
1642,-13.084636614535418
1643,-13.091996320147194
1644,-13.09935602575897
1645,-13.106715731370745
1646,-13.114075436982521
1647,-13.121435142594295
1648,-13.128794848206072
1649,-13.136154553817848
1650,-13.143514259429622
1651,-13.150873965041399
1652,-13.158233670653173
1653,-13.16559337626495
1654,-13.172953081876726
1655,-13.1803127874885
1656,-13.187672493100276
1657,-13.19503219871205
1658,-13.202391904323827
1659,-13.209751609935603
1660,-13.217111315547378
1661,-13.224471021159154
1662,-13.231830726770928
1663,-13.239190432382705
1664,-13.24655013799448
1665,-13.253909843606255
1666,-13.261269549218031
1667,-13.268629254829806
1668,-13.275988960441582
1669,-13.283348666053358
1670,-13.290708371665133
1671,-13.298068077276909
1672,-13.305427782888684
1673,-13.31278748850046
1674,-13.320147194112236
1675,-13.32750689972401
1676,-13.334866605335787
1677,-13.342226310947561
1678,-13.349586016559337
1679,-13.356945722171114
1680,-13.364305427782888
1681,-13.371665133394664
1682,-13.379024839006439
1683,-13.386384544618215
1684,-13.393744250229991
1685,-13.401103955841766
1686,-13.408463661453542
1687,-13.415823367065316
1688,-13.423183072677093
1689,-13.430542778288869
1690,-13.437902483900643
1691,-13.44526218951242
1692,-13.452621895124194
1693,-13.45998160073597
1694,-13.467341306347747
1695,-13.474701011959521
1696,-13.482060717571297
1697,-13.489420423183073
1698,-13.496780128794848
1699,-13.504139834406624
1700,-13.511499540018399
1701,-13.518859245630175
1702,-13.526218951241951
1703,-13.533578656853726
1704,-13.540938362465502
1705,-13.548298068077276
1706,-13.555657773689052
1707,-13.563017479300829
1708,-13.570377184912603
1709,-13.57773689052438
1710,-13.585096596136154
1711,-13.59245630174793
1712,-13.599816007359706
1713,-13.60717571297148
1714,-13.614535418583257
1715,-13.621895124195031
1716,-13.629254829806808
1717,-13.636614535418584
1718,-13.643974241030358
1719,-13.651333946642135
1720,-13.658693652253909
1721,-13.666053357865685
1722,-13.673413063477462
1723,-13.680772769089236
1724,-13.688132474701012
1725,-13.695492180312787
1726,-13.702851885924563
1727,-13.71021159153634
1728,-13.717571297148114
1729,-13.72493100275989
1730,-13.732290708371664
1731,-13.73965041398344
1732,-13.747010119595217
1733,-13.754369825206991
1734,-13.761729530818767
1735,-13.769089236430542
1736,-13.776448942042318
1737,-13.783808647654094
1738,-13.791168353265869
1739,-13.798528058877645
1740,-13.80588776448942
1741,-13.813247470101196
1742,-13.820607175712972
1743,-13.827966881324746
1744,-13.835326586936523
1745,-13.842686292548297
1746,-13.850045998160073
1747,-13.85740570377185
1748,-13.864765409383624
1749,-13.8721251149954
1750,-13.879484820607175
1751,-13.886844526218951
1752,-13.894204231830727
1753,-13.901563937442502
1754,-13.908923643054278
1755,-13.916283348666052
1756,-13.923643054277829
1757,-13.931002759889605
1758,-13.93836246550138
1759,-13.945722171113156
1760,-13.95308187672493
1761,-13.960441582336706
1762,-13.967801287948483
1763,-13.975160993560257
1764,-13.982520699172033
1765,-13.989880404783808
1766,-13.997240110395584
1767,-14.00459981600736
1768,-14.011959521619135
1769,-14.01931922723091
1770,-14.026678932842685
1771,-14.034038638454462
1772,-14.041398344066238
1773,-14.048758049678012
1774,-14.056117755289788
1775,-14.063477460901565
1776,-14.07083716651334
1777,-14.078196872125115
1778,-14.08555657773689
1779,-14.092916283348666
1780,-14.100275988960442
1781,-14.107635694572217
1782,-14.114995400183993
1783,-14.122355105795767
1784,-14.129714811407544
1785,-14.13707451701932
1786,-14.144434222631094
1787,-14.15179392824287
1788,-14.159153633854645
1789,-14.166513339466421
1790,-14.173873045078198
1791,-14.181232750689972
1792,-14.188592456301748
1793,-14.195952161913523
1794,-14.203311867525299
1795,-14.210671573137075
1796,-14.21803127874885
1797,-14.225390984360626
1798,-14.2327506899724
1799,-14.240110395584177
1800,-14.247470101195953
1801,-14.254829806807727
1802,-14.262189512419504
1803,-14.269549218031278
1804,-14.276908923643054
1805,-14.28426862925483
1806,-14.291628334866605
1807,-14.298988040478381
1808,-14.306347746090156
1809,-14.313707451701932
1810,-14.321067157313708
1811,-14.328426862925483
1812,-14.335786568537259
1813,-14.343146274149033
1814,-14.35050597976081
1815,-14.357865685372586
1816,-14.36522539098436
1817,-14.372585096596136
1818,-14.37994480220791
1819,-14.387304507819687
1820,-14.394664213431463
1821,-14.402023919043238
1822,-14.409383624655014
1823,-14.416743330266788
1824,-14.424103035878565
1825,-14.431462741490341
1826,-14.438822447102115
1827,-14.446182152713892
1828,-14.453541858325666
1829,-14.460901563937442
1830,-14.468261269549219
1831,-14.475620975160993
1832,-14.48298068077277
1833,-14.490340386384544
1834,-14.49770009199632
1835,-14.505059797608096
1836,-14.51241950321987
1837,-14.519779208831647
1838,-14.527138914443421
1839,-14.534498620055198
1840,-14.541858325666974
1841,-14.549218031278748
1842,-14.556577736890524
1843,-14.563937442502299
1844,-14.571297148114075
1845,-14.578656853725851
1846,-14.586016559337626
1847,-14.593376264949402
1848,-14.600735970561177
1849,-14.608095676172953
1850,-14.615455381784729
1851,-14.622815087396503
1852,-14.63017479300828
1853,-14.637534498620056
1854,-14.64489420423183
1855,-14.652253909843607
1856,-14.659613615455381
1857,-14.666973321067157
1858,-14.674333026678934
1859,-14.681692732290708
1860,-14.689052437902484
1861,-14.696412143514259
1862,-14.703771849126035
1863,-14.711131554737811
1864,-14.718491260349586
1865,-14.725850965961362
1866,-14.733210671573136
1867,-14.740570377184913
1868,-14.747930082796689
1869,-14.755289788408463
1870,-14.76264949402024
1871,-14.770009199632014
1872,-14.77736890524379
1873,-14.784728610855566
1874,-14.792088316467341
1875,-14.799448022079117
1876,-14.806807727690892
1877,-14.814167433302668
1878,-14.821527138914444
1879,-14.828886844526219
1880,-14.836246550137995
1881,-14.84360625574977
1882,-14.850965961361545
1883,-14.858325666973322
1884,-14.865685372585096
1885,-14.873045078196872
1886,-14.880404783808647
1887,-14.887764489420423
1888,-14.8951241950322
1889,-14.902483900643974
1890,-14.90984360625575
1891,-14.917203311867524
1892,-14.9245630174793
1893,-14.931922723091077
1894,-14.939282428702851
1895,-14.946642134314628
1896,-14.954001839926402
1897,-14.961361545538178
1898,-14.968721251149955
1899,-14.976080956761729
1900,-14.983440662373505
1901,-14.99080036798528
1902,-14.998160073597056
1903,-15.005519779208832
1904,-15.012879484820607
1905,-15.020239190432383
1906,-15.027598896044157
1907,-15.034958601655934
1908,-15.04231830726771
1909,-15.049678012879484
1910,-15.05703771849126
1911,-15.064397424103035
1912,-15.071757129714811
1913,-15.079116835326587
1914,-15.086476540938362
1915,-15.093836246550138
1916,-15.101195952161913
1917,-15.108555657773689
1918,-15.115915363385465
1919,-15.12327506899724
1920,-15.130634774609016
1921,-15.13799448022079
1922,-15.145354185832566
1923,-15.152713891444343
1924,-15.160073597056117
1925,-15.167433302667893
1926,-15.174793008279668
1927,-15.182152713891444
1928,-15.18951241950322
1929,-15.196872125114995
1930,-15.204231830726771
1931,-15.211591536338547
1932,-15.218951241950322
1933,-15.226310947562098
1934,-15.233670653173872
1935,-15.241030358785649
1936,-15.248390064397425
1937,-15.2557497700092
1938,-15.263109475620976
1939,-15.27046918123275
1940,-15.277828886844526
1941,-15.285188592456302
1942,-15.292548298068077
1943,-15.299908003679853
1944,-15.307267709291628
1945,-15.314627414903404
1946,-15.32198712051518
1947,-15.329346826126955
1948,-15.33670653173873
1949,-15.344066237350505
1950,-15.351425942962281
1951,-15.358785648574058
1952,-15.366145354185832
1953,-15.373505059797608
1954,-15.380864765409383
1955,-15.388224471021159
1956,-15.395584176632935
1957,-15.40294388224471
1958,-15.410303587856486
1959,-15.41766329346826
1960,-15.425022999080037
1961,-15.432382704691813
1962,-15.439742410303587
1963,-15.447102115915364
1964,-15.454461821527138
1965,-15.461821527138914
1966,-15.46918123275069
1967,-15.476540938362465
1968,-15.483900643974241
1969,-15.491260349586016
1970,-15.498620055197792
1971,-15.505979760809568
1972,-15.513339466421343
1973,-15.520699172033119
1974,-15.528058877644893
1975,-15.53541858325667
1976,-15.542778288868446
1977,-15.55013799448022
1978,-15.557497700091997
1979,-15.564857405703771
1980,-15.572217111315547
1981,-15.579576816927323
1982,-15.586936522539098
1983,-15.594296228150874
1984,-15.601655933762649
1985,-15.609015639374425
1986,-15.616375344986201
1987,-15.623735050597976
1988,-15.631094756209752
1989,-15.638454461821526
1990,-15.645814167433302
1991,-15.653173873045079
1992,-15.660533578656853
1993,-15.66789328426863
1994,-15.675252989880404
1995,-15.68261269549218
1996,-15.689972401103956
1997,-15.69733210671573
1998,-15.704691812327507
1999,-15.712051517939281
2000,-15.719411223551058
2001,-15.726770929162834
2002,-15.734130634774608
2003,-15.741490340386385
2004,-15.748850045998159
2005,-15.756209751609935
2006,-15.763569457221712
2007,-15.770929162833486
2008,-15.778288868445262
2009,-15.785648574057038
2010,-15.793008279668813
2011,-15.80036798528059
2012,-15.807727690892364
2013,-15.81508739650414
2014,-15.822447102115916
2015,-15.82980680772769
2016,-15.837166513339467
2017,-15.844526218951241
2018,-15.851885924563017
2019,-15.859245630174794
2020,-15.866605335786568
2021,-15.873965041398344
2022,-15.881324747010119
2023,-15.888684452621895
2024,-15.896044158233671
2025,-15.903403863845446
2026,-15.910763569457222
2027,-15.918123275068996
2028,-15.925482980680773
2029,-15.932842686292549
2030,-15.940202391904323
2031,-15.9475620975161
2032,-15.954921803127874
2033,-15.96228150873965
2034,-15.969641214351427
2035,-15.977000919963201
2036,-15.984360625574977
2037,-15.991720331186752
2038,-15.999080036798528
2039,-16.006439742410304
2040,-16.013799448022077
2041,-16.021159153633853
2042,-16.02851885924563
2043,-16.035878564857406
2044,-16.043238270469182
2045,-16.050597976080958
2046,-16.057957681692734
2047,-16.065317387304507
2048,-16.072677092916283
2049,-16.08003679852806
2050,-16.087396504139832
2051,-16.09475620975161
2052,-16.102115915363385
2053,-16.10947562097516
2054,-16.116835326586937
2055,-16.124195032198713
2056,-16.13155473781049
2057,-16.138914443422262
2058,-16.14627414903404
2059,-16.153633854645815
2060,-16.160993560257587
2061,-16.168353265869364
2062,-16.17571297148114
2063,-16.183072677092916
2064,-16.190432382704692
2065,-16.19779208831647
2066,-16.205151793928245
2067,-16.212511499540017
2068,-16.219871205151794
2069,-16.22723091076357
2070,-16.234590616375343
2071,-16.24195032198712
2072,-16.249310027598895
2073,-16.25666973321067
2074,-16.264029438822448
2075,-16.271389144434224
2076,-16.278748850046
2077,-16.286108555657773
2078,-16.29346826126955
2079,-16.300827966881325
2080,-16.308187672493098
2081,-16.315547378104874
2082,-16.32290708371665
2083,-16.330266789328427
2084,-16.337626494940203
2085,-16.34498620055198
2086,-16.352345906163755
2087,-16.359705611775528
2088,-16.367065317387304
2089,-16.37442502299908
2090,-16.381784728610853
2091,-16.38914443422263
2092,-16.396504139834406
2093,-16.403863845446182
2094,-16.411223551057958
2095,-16.418583256669734
2096,-16.42594296228151
2097,-16.433302667893287
2098,-16.44066237350506
2099,-16.448022079116836
2100,-16.45538178472861
2101,-16.462741490340385
2102,-16.47010119595216
2103,-16.477460901563937
2104,-16.484820607175713
2105,-16.49218031278749
2106,-16.499540018399266
2107,-16.506899724011042
2108,-16.514259429622815
2109,-16.52161913523459
2110,-16.528978840846364
2111,-16.53633854645814
2112,-16.543698252069916
2113,-16.551057957681692
2114,-16.55841766329347
2115,-16.565777368905245
2116,-16.57313707451702
2117,-16.580496780128797
2118,-16.58785648574057
2119,-16.595216191352346
2120,-16.60257589696412
2121,-16.609935602575895
2122,-16.61729530818767
2123,-16.624655013799448
2124,-16.632014719411224
2125,-16.639374425023
2126,-16.646734130634776
2127,-16.654093836246552
2128,-16.661453541858325
2129,-16.6688132474701
2130,-16.676172953081874
2131,-16.68353265869365
2132,-16.690892364305427
2133,-16.698252069917203
2134,-16.70561177552898
2135,-16.712971481140755
2136,-16.72033118675253
2137,-16.727690892364308
2138,-16.73505059797608
2139,-16.742410303587857
2140,-16.74977000919963
2141,-16.757129714811406
2142,-16.764489420423182
2143,-16.771849126034958
2144,-16.779208831646734
2145,-16.78656853725851
2146,-16.793928242870287
2147,-16.801287948482063
2148,-16.808647654093836
2149,-16.816007359705612
2150,-16.823367065317385
2151,-16.83072677092916
2152,-16.838086476540937
2153,-16.845446182152713
2154,-16.85280588776449
2155,-16.860165593376266
2156,-16.867525298988042
2157,-16.874885004599818
2158,-16.88224471021159
2159,-16.889604415823367
2160,-16.89696412143514
2161,-16.904323827046916
2162,-16.911683532658692
2163,-16.91904323827047
2164,-16.926402943882245
2165,-16.93376264949402
2166,-16.941122355105797
2167,-16.948482060717573
2168,-16.955841766329346
2169,-16.963201471941122
2170,-16.9705611775529
2171,-16.97792088316467
2172,-16.985280588776448
2173,-16.992640294388224
2174,-17.0
2175,-17.007359705611776
2176,-17.014719411223552
2177,-17.022079116835325
2178,-17.0294388224471
2179,-17.036798528058878
2180,-17.044158233670654
2181,-17.05151793928243
2182,-17.058877644894203
2183,-17.06623735050598
2184,-17.073597056117755
2185,-17.08095676172953
2186,-17.088316467341308
2187,-17.09567617295308
2188,-17.103035878564857
2189,-17.110395584176633
2190,-17.11775528978841
2191,-17.125114995400185
2192,-17.132474701011958
2193,-17.139834406623734
2194,-17.14719411223551
2195,-17.154553817847287
2196,-17.161913523459063
2197,-17.169273229070836
2198,-17.176632934682612
2199,-17.183992640294388
2200,-17.191352345906164
2201,-17.19871205151794
2202,-17.206071757129713
2203,-17.21343146274149
2204,-17.220791168353266
2205,-17.228150873965042
2206,-17.235510579576818
2207,-17.24287028518859
2208,-17.250229990800367
2209,-17.257589696412143
2210,-17.26494940202392
2211,-17.272309107635696
2212,-17.27966881324747
2213,-17.287028518859245
2214,-17.29438822447102
2215,-17.301747930082797
2216,-17.309107635694573
2217,-17.316467341306346
2218,-17.323827046918122
2219,-17.3311867525299
2220,-17.338546458141675
2221,-17.34590616375345
2222,-17.353265869365224
2223,-17.360625574977
2224,-17.367985280588776
2225,-17.375344986200552
2226,-17.38270469181233
2227,-17.3900643974241
2228,-17.397424103035878
2229,-17.404783808647654
2230,-17.41214351425943
2231,-17.419503219871206
2232,-17.42686292548298
2233,-17.434222631094755
2234,-17.44158233670653
2235,-17.448942042318308
2236,-17.456301747930084
2237,-17.463661453541857
2238,-17.471021159153633
2239,-17.47838086476541
2240,-17.485740570377185
2241,-17.49310027598896
2242,-17.500459981600734
2243,-17.50781968721251
2244,-17.515179392824287
2245,-17.522539098436063
2246,-17.52989880404784
2247,-17.537258509659612
2248,-17.544618215271388
2249,-17.551977920883164
2250,-17.55933762649494
2251,-17.566697332106717
2252,-17.57405703771849
2253,-17.581416743330266
2254,-17.588776448942042
2255,-17.596136154553818
2256,-17.603495860165594
2257,-17.610855565777367
2258,-17.618215271389143
2259,-17.62557497700092
2260,-17.632934682612696
2261,-17.640294388224472
2262,-17.647654093836245
2263,-17.65501379944802
2264,-17.662373505059797
2265,-17.669733210671573
2266,-17.67709291628335
2267,-17.684452621895122
2268,-17.6918123275069
2269,-17.699172033118675
2270,-17.70653173873045
2271,-17.713891444342227
2272,-17.721251149954
2273,-17.728610855565776
2274,-17.735970561177552
2275,-17.74333026678933
2276,-17.750689972401105
2277,-17.758049678012878
2278,-17.765409383624654
2279,-17.77276908923643
2280,-17.780128794848206
2281,-17.787488500459983
2282,-17.794848206071755
2283,-17.80220791168353
2284,-17.809567617295308
2285,-17.816927322907084
2286,-17.82428702851886
2287,-17.831646734130636
2288,-17.83900643974241
2289,-17.846366145354185
2290,-17.85372585096596
2291,-17.861085556577738
2292,-17.868445262189514
2293,-17.875804967801287
2294,-17.883164673413063
2295,-17.89052437902484
2296,-17.897884084636615
2297,-17.90524379024839
2298,-17.912603495860164
2299,-17.91996320147194
2300,-17.927322907083717
2301,-17.934682612695493
2302,-17.94204231830727
2303,-17.949402023919042
2304,-17.956761729530818
2305,-17.964121435142594
2306,-17.97148114075437
2307,-17.978840846366147
2308,-17.98620055197792
2309,-17.993560257589696
2310,-18.000919963201472
2311,-18.00827966881325
2312,-18.015639374425024
2313,-18.022999080036797
2314,-18.030358785648573
2315,-18.03771849126035
2316,-18.045078196872126
2317,-18.052437902483902
2318,-18.059797608095675
2319,-18.06715731370745
2320,-18.074517019319227
2321,-18.081876724931004
2322,-18.08923643054278
2323,-18.096596136154552
2324,-18.10395584176633
2325,-18.111315547378105
2326,-18.11867525298988
2327,-18.126034958601657
2328,-18.13339466421343
2329,-18.140754369825206
2330,-18.148114075436983
2331,-18.15547378104876
2332,-18.162833486660535
2333,-18.170193192272308
2334,-18.177552897884084
2335,-18.18491260349586
2336,-18.192272309107636
2337,-18.199632014719413
2338,-18.206991720331185
2339,-18.21435142594296
2340,-18.221711131554738
2341,-18.229070837166514
2342,-18.23643054277829
2343,-18.243790248390063
2344,-18.25114995400184
2345,-18.258509659613615
2346,-18.26586936522539
2347,-18.273229070837168
2348,-18.28058877644894
2349,-18.287948482060717
2350,-18.295308187672493
2351,-18.30266789328427
2352,-18.310027598896045
2353,-18.317387304507818
2354,-18.324747010119594
2355,-18.33210671573137
2356,-18.339466421343147
2357,-18.346826126954923
2358,-18.354185832566696
2359,-18.361545538178472
2360,-18.36890524379025
2361,-18.376264949402024
2362,-18.3836246550138
2363,-18.390984360625573
2364,-18.39834406623735
2365,-18.405703771849126
2366,-18.413063477460902
2367,-18.42042318307268
2368,-18.42778288868445
2369,-18.435142594296227
2370,-18.442502299908003
2371,-18.44986200551978
2372,-18.457221711131556
2373,-18.46458141674333
2374,-18.471941122355105
2375,-18.47930082796688
2376,-18.486660533578657
2377,-18.494020239190434
2378,-18.501379944802206
2379,-18.508739650413983
2380,-18.51609935602576
2381,-18.523459061637535
2382,-18.53081876724931
2383,-18.538178472861084
2384,-18.54553817847286
2385,-18.552897884084636
2386,-18.560257589696413
2387,-18.56761729530819
2388,-18.57497700091996
2389,-18.582336706531738
2390,-18.589696412143514
2391,-18.59705611775529
2392,-18.604415823367066
2393,-18.61177552897884
2394,-18.619135234590615
2395,-18.62649494020239
2396,-18.633854645814168
2397,-18.641214351425944
2398,-18.648574057037717
2399,-18.655933762649493
2400,-18.66329346826127
2401,-18.670653173873045
2402,-18.67801287948482
2403,-18.685372585096594
2404,-18.69273229070837
2405,-18.700091996320147
2406,-18.707451701931923
2407,-18.7148114075437
2408,-18.722171113155472
2409,-18.72953081876725
2410,-18.736890524379024
2411,-18.7442502299908
2412,-18.751609935602577
2413,-18.75896964121435
2414,-18.766329346826126
2415,-18.773689052437902
2416,-18.78104875804968
2417,-18.788408463661455
2418,-18.795768169273227
2419,-18.803127874885003
2420,-18.81048758049678
2421,-18.817847286108556
2422,-18.825206991720332
2423,-18.832566697332105
2424,-18.83992640294388
2425,-18.847286108555657
2426,-18.854645814167434
2427,-18.86200551977921
2428,-18.869365225390982
2429,-18.87672493100276
2430,-18.884084636614535
2431,-18.89144434222631
2432,-18.898804047838087
2433,-18.90616375344986
2434,-18.913523459061636
2435,-18.920883164673413
2436,-18.92824287028519
2437,-18.935602575896965
2438,-18.942962281508738
2439,-18.950321987120514
2440,-18.95768169273229
2441,-18.965041398344066
2442,-18.972401103955843
2443,-18.97976080956762
2444,-18.98712051517939
2445,-18.994480220791168
2446,-19.001839926402944
2447,-19.00919963201472
2448,-19.016559337626497
2449,-19.02391904323827
2450,-19.031278748850045
2451,-19.03863845446182
2452,-19.045998160073598
2453,-19.053357865685374
2454,-19.060717571297147
2455,-19.068077276908923
2456,-19.0754369825207
2457,-19.082796688132476
2458,-19.09015639374425
2459,-19.097516099356024
2460,-19.1048758049678
2461,-19.112235510579577
2462,-19.119595216191353
2463,-19.12695492180313
2464,-19.134314627414902
2465,-19.14167433302668
2466,-19.149034038638455
2467,-19.15639374425023
2468,-19.163753449862007
2469,-19.17111315547378
2470,-19.178472861085556
2471,-19.185832566697332
2472,-19.19319227230911
2473,-19.200551977920885
2474,-19.207911683532657
2475,-19.215271389144434
2476,-19.22263109475621
2477,-19.229990800367986
2478,-19.237350505979762
2479,-19.244710211591535
2480,-19.25206991720331
2481,-19.259429622815087
2482,-19.266789328426864
2483,-19.27414903403864
2484,-19.281508739650413
2485,-19.28886844526219
2486,-19.296228150873965
2487,-19.30358785648574
2488,-19.310947562097518
2489,-19.31830726770929
2490,-19.325666973321066
2491,-19.333026678932843
2492,-19.34038638454462
2493,-19.347746090156395
2494,-19.355105795768168
2495,-19.362465501379944
2496,-19.36982520699172
2497,-19.377184912603497
2498,-19.384544618215273
2499,-19.391904323827045
2500,-19.39926402943882
2501,-19.406623735050598
2502,-19.413983440662374
2503,-19.42134314627415
2504,-19.428702851885923
2505,-19.4360625574977
2506,-19.443422263109476
2507,-19.45078196872125
2508,-19.458141674333028
2509,-19.4655013799448
2510,-19.472861085556577
2511,-19.480220791168353
2512,-19.48758049678013
2513,-19.494940202391906
2514,-19.50229990800368
2515,-19.509659613615455
2516,-19.51701931922723
2517,-19.524379024839007
2518,-19.531738730450783
2519,-19.539098436062556
2520,-19.546458141674332
2521,-19.55381784728611
2522,-19.561177552897885
2523,-19.56853725850966
2524,-19.575896964121434
2525,-19.58325666973321
2526,-19.590616375344986
2527,-19.597976080956762
2528,-19.60533578656854
2529,-19.61269549218031
2530,-19.620055197792087
2531,-19.627414903403864
2532,-19.63477460901564
2533,-19.642134314627416
2534,-19.64949402023919
2535,-19.656853725850965
2536,-19.66421343146274
2537,-19.671573137074517
2538,-19.678932842686294
2539,-19.686292548298066
2540,-19.693652253909843
2541,-19.70101195952162
2542,-19.708371665133395
2543,-19.71573137074517
2544,-19.723091076356944
2545,-19.73045078196872
2546,-19.737810487580496
2547,-19.745170193192273
2548,-19.75252989880405
2549,-19.75988960441582
2550,-19.767249310027598
2551,-19.774609015639374
2552,-19.78196872125115
2553,-19.789328426862927
2554,-19.7966881324747
2555,-19.804047838086476
2556,-19.81140754369825
2557,-19.818767249310028
2558,-19.826126954921804
2559,-19.833486660533577
2560,-19.840846366145353
2561,-19.84820607175713
2562,-19.855565777368906
2563,-19.862925482980682
2564,-19.870285188592455
2565,-19.87764489420423
2566,-19.885004599816007
2567,-19.892364305427783
2568,-19.89972401103956
2569,-19.907083716651332
2570,-19.91444342226311
2571,-19.921803127874885
2572,-19.92916283348666
2573,-19.936522539098437
2574,-19.94388224471021
2575,-19.951241950321986
2576,-19.958601655933762
2577,-19.96596136154554
2578,-19.973321067157315
2579,-19.980680772769087
2580,-19.988040478380864
2581,-19.99540018399264
2582,-20.002759889604416
2583,-20.010119595216192
2584,-20.017479300827965
2585,-20.02483900643974
2586,-20.032198712051517
2587,-20.039558417663294
2588,-20.04691812327507
2589,-20.054277828886843
2590,-20.06163753449862
2591,-20.068997240110395
2592,-20.07635694572217
2593,-20.083716651333948
2594,-20.09107635694572
2595,-20.098436062557496
2596,-20.105795768169273
2597,-20.11315547378105
2598,-20.120515179392825
2599,-20.127874885004598
2600,-20.135234590616374
2601,-20.14259429622815
2602,-20.149954001839927
2603,-20.157313707451703
2604,-20.16467341306348
2605,-20.17203311867525
2606,-20.179392824287028
2607,-20.186752529898804
2608,-20.19411223551058
2609,-20.201471941122357
2610,-20.20883164673413
2611,-20.216191352345906
2612,-20.223551057957682
2613,-20.230910763569458
2614,-20.238270469181234
2615,-20.245630174793007
2616,-20.252989880404783
2617,-20.26034958601656
2618,-20.267709291628336
2619,-20.275068997240112
2620,-20.282428702851885
2621,-20.28978840846366
2622,-20.297148114075437
2623,-20.304507819687213
2624,-20.31186752529899
2625,-20.319227230910762
2626,-20.32658693652254
2627,-20.333946642134315
2628,-20.34130634774609
2629,-20.348666053357867
2630,-20.35602575896964
2631,-20.363385464581416
2632,-20.370745170193192
2633,-20.37810487580497
2634,-20.385464581416745
2635,-20.392824287028517
2636,-20.400183992640294
2637,-20.40754369825207
2638,-20.414903403863846
2639,-20.422263109475622
2640,-20.429622815087395
2641,-20.43698252069917
2642,-20.444342226310948
2643,-20.451701931922724
2644,-20.4590616375345
2645,-20.466421343146273
2646,-20.47378104875805
2647,-20.481140754369825
2648,-20.4885004599816
2649,-20.495860165593378
2650,-20.50321987120515
2651,-20.510579576816927
2652,-20.517939282428703
2653,-20.52529898804048
2654,-20.532658693652255
2655,-20.540018399264028
2656,-20.547378104875804
2657,-20.55473781048758
2658,-20.562097516099357
2659,-20.569457221711133
2660,-20.576816927322906
2661,-20.584176632934682
2662,-20.591536338546458
2663,-20.598896044158234
2664,-20.60625574977001
2665,-20.613615455381783
2666,-20.62097516099356
2667,-20.628334866605336
2668,-20.635694572217112
2669,-20.643054277828888
2670,-20.65041398344066
2671,-20.657773689052437
2672,-20.665133394664213
2673,-20.67249310027599
2674,-20.679852805887766
2675,-20.68721251149954
2676,-20.694572217111315
2677,-20.70193192272309
2678,-20.709291628334867
2679,-20.716651333946643
2680,-20.724011039558416
2681,-20.731370745170192
2682,-20.73873045078197
2683,-20.746090156393745
2684,-20.75344986200552
2685,-20.760809567617294
2686,-20.76816927322907
2687,-20.775528978840846
2688,-20.782888684452622
2689,-20.7902483900644
2690,-20.79760809567617
2691,-20.804967801287948
2692,-20.812327506899724
2693,-20.8196872125115
2694,-20.827046918123276
2695,-20.83440662373505
2696,-20.841766329346825
2697,-20.8491260349586
2698,-20.856485740570378
2699,-20.863845446182154
2700,-20.871205151793927
2701,-20.878564857405703
2702,-20.88592456301748
2703,-20.893284268629255
2704,-20.90064397424103
2705,-20.908003679852804
2706,-20.91536338546458
2707,-20.922723091076357
2708,-20.930082796688133
2709,-20.93744250229991
2710,-20.944802207911682
2711,-20.952161913523458
2712,-20.959521619135234
2713,-20.96688132474701
2714,-20.974241030358787
2715,-20.98160073597056
2716,-20.988960441582336
2717,-20.996320147194112
2718,-21.003679852805888
2719,-21.011039558417664
2720,-21.018399264029437
2721,-21.025758969641213
2722,-21.03311867525299
2723,-21.040478380864766
2724,-21.047838086476542
2725,-21.055197792088315
2726,-21.06255749770009
2727,-21.069917203311867
2728,-21.077276908923643
2729,-21.08463661453542
2730,-21.091996320147192
2731,-21.09935602575897
2732,-21.106715731370745
2733,-21.11407543698252
2734,-21.121435142594297
2735,-21.12879484820607
2736,-21.136154553817846
2737,-21.143514259429622
2738,-21.1508739650414
2739,-21.158233670653175
2740,-21.165593376264948
2741,-21.172953081876724
2742,-21.1803127874885
2743,-21.187672493100276
2744,-21.195032198712052
2745,-21.202391904323825
2746,-21.2097516099356
2747,-21.217111315547378
2748,-21.224471021159154
2749,-21.23183072677093
2750,-21.239190432382703
2751,-21.24655013799448
2752,-21.253909843606255
2753,-21.26126954921803
2754,-21.268629254829808
2755,-21.27598896044158
2756,-21.283348666053357
2757,-21.290708371665133
2758,-21.29806807727691
2759,-21.305427782888685
2760,-21.31278748850046
2761,-21.320147194112234
2762,-21.32750689972401
2763,-21.334866605335787
2764,-21.342226310947563
2765,-21.34958601655934
2766,-21.356945722171112
2767,-21.364305427782888
2768,-21.371665133394664
2769,-21.37902483900644
2770,-21.386384544618217
2771,-21.39374425022999
2772,-21.401103955841766
2773,-21.408463661453542
2774,-21.415823367065318
2775,-21.423183072677094
2776,-21.430542778288867
2777,-21.437902483900643
2778,-21.44526218951242
2779,-21.452621895124196
2780,-21.459981600735972
2781,-21.467341306347745
2782,-21.47470101195952
2783,-21.482060717571297
2784,-21.489420423183073
2785,-21.49678012879485
2786,-21.504139834406622
2787,-21.5114995400184
2788,-21.518859245630175
2789,-21.52621895124195
2790,-21.533578656853727
2791,-21.5409383624655
2792,-21.548298068077276
2793,-21.555657773689052
2794,-21.56301747930083
2795,-21.570377184912605
2796,-21.577736890524378
2797,-21.585096596136154
2798,-21.59245630174793
2799,-21.599816007359706
2800,-21.607175712971483
2801,-21.614535418583255
2802,-21.62189512419503
2803,-21.629254829806808
2804,-21.636614535418584
2805,-21.64397424103036
2806,-21.651333946642133
2807,-21.65869365225391
2808,-21.666053357865685
2809,-21.67341306347746
2810,-21.680772769089238
2811,-21.68813247470101
2812,-21.695492180312787
2813,-21.702851885924563
2814,-21.71021159153634
2815,-21.717571297148115
2816,-21.724931002759888
2817,-21.732290708371664
2818,-21.73965041398344
2819,-21.747010119595217
2820,-21.754369825206993
2821,-21.761729530818766
2822,-21.769089236430542
2823,-21.776448942042318
2824,-21.783808647654094
2825,-21.79116835326587
2826,-21.798528058877643
2827,-21.80588776448942
2828,-21.813247470101196
2829,-21.820607175712972
2830,-21.82796688132475
2831,-21.83532658693652
2832,-21.842686292548297
2833,-21.850045998160073
2834,-21.85740570377185
2835,-21.864765409383626
2836,-21.8721251149954
2837,-21.879484820607175
2838,-21.88684452621895
2839,-21.894204231830727
2840,-21.901563937442504
2841,-21.908923643054276
2842,-21.916283348666052
2843,-21.92364305427783
2844,-21.931002759889605
2845,-21.93836246550138
2846,-21.945722171113154
2847,-21.95308187672493
2848,-21.960441582336706
2849,-21.967801287948483
2850,-21.97516099356026
2851,-21.98252069917203
2852,-21.989880404783808
2853,-21.997240110395584
2854,-22.00459981600736
2855,-22.011959521619136
2856,-22.01931922723091
2857,-22.026678932842685
2858,-22.03403863845446
2859,-22.041398344066238
2860,-22.048758049678014
2861,-22.056117755289787
2862,-22.063477460901563
2863,-22.07083716651334
2864,-22.078196872125115
2865,-22.08555657773689
2866,-22.092916283348664
2867,-22.10027598896044
2868,-22.107635694572217
2869,-22.114995400183993
2870,-22.12235510579577
2871,-22.129714811407542
2872,-22.137074517019318
2873,-22.144434222631094
2874,-22.15179392824287
2875,-22.159153633854647
2876,-22.16651333946642
2877,-22.173873045078196
2878,-22.181232750689972
2879,-22.18859245630175
2880,-22.195952161913524
2881,-22.203311867525297
2882,-22.210671573137073
2883,-22.21803127874885
2884,-22.225390984360626
2885,-22.232750689972402
2886,-22.240110395584175
2887,-22.24747010119595
2888,-22.254829806807727
2889,-22.262189512419504
2890,-22.26954921803128
2891,-22.276908923643052
2892,-22.28426862925483
2893,-22.291628334866605
2894,-22.29898804047838
2895,-22.306347746090157
2896,-22.31370745170193
2897,-22.321067157313706
2898,-22.328426862925483
2899,-22.33578656853726
2900,-22.343146274149035
2901,-22.350505979760808
2902,-22.357865685372584
2903,-22.36522539098436
2904,-22.372585096596136
2905,-22.379944802207913
2906,-22.387304507819685
2907,-22.39466421343146
2908,-22.402023919043238
2909,-22.409383624655014
2910,-22.41674333026679
2911,-22.424103035878563
2912,-22.43146274149034
2913,-22.438822447102115
2914,-22.44618215271389
2915,-22.453541858325668
2916,-22.460901563937444
2917,-22.468261269549217
2918,-22.475620975160993
2919,-22.48298068077277
2920,-22.490340386384545
2921,-22.49770009199632
2922,-22.505059797608094
2923,-22.51241950321987
2924,-22.519779208831647
2925,-22.527138914443423
2926,-22.5344986200552
2927,-22.541858325666972
2928,-22.54921803127875
2929,-22.556577736890524
2930,-22.5639374425023
2931,-22.571297148114077
2932,-22.57865685372585
2933,-22.586016559337626
2934,-22.593376264949402
2935,-22.60073597056118
2936,-22.608095676172955
2937,-22.615455381784727
2938,-22.622815087396503
2939,-22.63017479300828
2940,-22.637534498620056
2941,-22.644894204231832
2942,-22.652253909843605
2943,-22.65961361545538
2944,-22.666973321067157
2945,-22.674333026678934
2946,-22.68169273229071
2947,-22.689052437902482
2948,-22.69641214351426
2949,-22.703771849126035
2950,-22.71113155473781
2951,-22.718491260349587
2952,-22.72585096596136
2953,-22.733210671573136
2954,-22.740570377184913
2955,-22.74793008279669
2956,-22.755289788408465
2957,-22.762649494020238
2958,-22.770009199632014
2959,-22.77736890524379
2960,-22.784728610855566
2961,-22.792088316467343
2962,-22.799448022079115
2963,-22.80680772769089
2964,-22.814167433302668
2965,-22.821527138914444
2966,-22.82888684452622
2967,-22.836246550137993
2968,-22.84360625574977
2969,-22.850965961361545
2970,-22.85832566697332
2971,-22.865685372585098
2972,-22.87304507819687
2973,-22.880404783808647
2974,-22.887764489420423
2975,-22.8951241950322
2976,-22.902483900643976
2977,-22.90984360625575
2978,-22.917203311867524
2979,-22.9245630174793
2980,-22.931922723091077
2981,-22.939282428702853
2982,-22.946642134314626
2983,-22.954001839926402
2984,-22.96136154553818
2985,-22.968721251149955
2986,-22.97608095676173
2987,-22.983440662373503
2988,-22.99080036798528
2989,-22.998160073597056
2990,-23.005519779208832
2991,-23.01287948482061
2992,-23.02023919043238
2993,-23.027598896044157
2994,-23.034958601655934
2995,-23.04231830726771
2996,-23.049678012879486
2997,-23.05703771849126
2998,-23.064397424103035
2999,-23.07175712971481
3000,-23.079116835326587
3001,-23.086476540938364
3002,-23.093836246550136
3003,-23.101195952161913
3004,-23.10855565777369
3005,-23.115915363385465
3006,-23.12327506899724
3007,-23.130634774609014
3008,-23.13799448022079
3009,-23.145354185832566
3010,-23.152713891444343
3011,-23.16007359705612
3012,-23.16743330266789
3013,-23.174793008279668
3014,-23.182152713891444
3015,-23.18951241950322
3016,-23.196872125114997
3017,-23.20423183072677
3018,-23.211591536338545
3019,-23.21895124195032
3020,-23.226310947562098
3021,-23.233670653173874
3022,-23.241030358785647
3023,-23.248390064397423
3024,-23.2557497700092
3025,-23.263109475620976
3026,-23.27046918123275
3027,-23.277828886844524
3028,-23.2851885924563
3029,-23.292548298068077
3030,-23.299908003679853
3031,-23.30726770929163
3032,-23.314627414903402
3033,-23.32198712051518
3034,-23.329346826126955
3035,-23.33670653173873
3036,-23.344066237350507
3037,-23.35142594296228
3038,-23.358785648574056
3039,-23.366145354185832
3040,-23.37350505979761
3041,-23.380864765409385
3042,-23.388224471021157
3043,-23.395584176632934
3044,-23.40294388224471
3045,-23.410303587856486
3046,-23.417663293468262
3047,-23.425022999080035
3048,-23.43238270469181
3049,-23.439742410303587
3050,-23.447102115915364
3051,-23.45446182152714
3052,-23.461821527138913
3053,-23.46918123275069
3054,-23.476540938362465
3055,-23.48390064397424
3056,-23.491260349586017
3057,-23.49862005519779
3058,-23.505979760809566
3059,-23.513339466421343
3060,-23.52069917203312
3061,-23.528058877644895
3062,-23.535418583256668
3063,-23.542778288868444
3064,-23.55013799448022
3065,-23.557497700091997
3066,-23.564857405703773
3067,-23.572217111315545
3068,-23.57957681692732
3069,-23.586936522539098
3070,-23.594296228150874
3071,-23.60165593376265
3072,-23.609015639374427
3073,-23.6163753449862
3074,-23.623735050597976
3075,-23.63109475620975
3076,-23.638454461821528
3077,-23.645814167433304
3078,-23.653173873045077
3079,-23.660533578656853
3080,-23.66789328426863
3081,-23.675252989880406
3082,-23.682612695492182
3083,-23.689972401103955
3084,-23.69733210671573
3085,-23.704691812327507
3086,-23.712051517939283
3087,-23.71941122355106
3088,-23.726770929162832
3089,-23.73413063477461
3090,-23.741490340386385
3091,-23.74885004599816
3092,-23.756209751609937
3093,-23.76356945722171
3094,-23.770929162833486
3095,-23.778288868445262
3096,-23.78564857405704
3097,-23.793008279668815
3098,-23.800367985280587
3099,-23.807727690892364
3100,-23.81508739650414
3101,-23.822447102115916
3102,-23.829806807727692
3103,-23.837166513339465
3104,-23.84452621895124
3105,-23.851885924563017
3106,-23.859245630174794
3107,-23.86660533578657
3108,-23.873965041398343
3109,-23.88132474701012
3110,-23.888684452621895
3111,-23.89604415823367
3112,-23.903403863845448
3113,-23.91076356945722
3114,-23.918123275068996
3115,-23.925482980680773
3116,-23.93284268629255
3117,-23.940202391904325
3118,-23.947562097516098
3119,-23.954921803127874
3120,-23.96228150873965
3121,-23.969641214351427
3122,-23.977000919963203
3123,-23.984360625574976
3124,-23.99172033118675
3125,-23.999080036798528
3126,-24.006439742410304
3127,-24.01379944802208
3128,-24.021159153633853
3129,-24.02851885924563
3130,-24.035878564857406
3131,-24.043238270469182
3132,-24.050597976080958
3133,-24.05795768169273
3134,-24.065317387304507
3135,-24.072677092916283
3136,-24.08003679852806
3137,-24.087396504139836
3138,-24.09475620975161
3139,-24.102115915363385
3140,-24.10947562097516
3141,-24.116835326586937
3142,-24.124195032198713
3143,-24.131554737810486
3144,-24.138914443422262
3145,-24.14627414903404
3146,-24.153633854645815
3147,-24.16099356025759
3148,-24.168353265869364
3149,-24.17571297148114
3150,-24.183072677092916
3151,-24.190432382704692
3152,-24.19779208831647
3153,-24.20515179392824
3154,-24.212511499540017
3155,-24.219871205151794
3156,-24.22723091076357
3157,-24.234590616375346
3158,-24.24195032198712
3159,-24.249310027598895
3160,-24.25666973321067
3161,-24.264029438822448
3162,-24.271389144434224
3163,-24.278748850045996
3164,-24.286108555657773
3165,-24.29346826126955
3166,-24.300827966881325
3167,-24.3081876724931
3168,-24.315547378104874
3169,-24.32290708371665
3170,-24.330266789328427
3171,-24.337626494940203
3172,-24.34498620055198
3173,-24.35234590616375
3174,-24.359705611775528
3175,-24.367065317387304
3176,-24.37442502299908
3177,-24.381784728610857
3178,-24.38914443422263
3179,-24.396504139834406
3180,-24.403863845446182
3181,-24.411223551057958
3182,-24.418583256669734
3183,-24.425942962281507
3184,-24.433302667893283
3185,-24.44066237350506
3186,-24.448022079116836
3187,-24.455381784728612
3188,-24.462741490340385
3189,-24.47010119595216
3190,-24.477460901563937
3191,-24.484820607175713
3192,-24.49218031278749
3193,-24.499540018399262
3194,-24.50689972401104
3195,-24.514259429622815
3196,-24.52161913523459
3197,-24.528978840846367
3198,-24.53633854645814
3199,-24.543698252069916
3200,-24.551057957681692
3201,-24.55841766329347
3202,-24.565777368905245
3203,-24.573137074517017
3204,-24.580496780128794
3205,-24.58785648574057
3206,-24.595216191352346
3207,-24.602575896964122
3208,-24.609935602575895
3209,-24.61729530818767
3210,-24.624655013799448
3211,-24.632014719411224
3212,-24.639374425023
3213,-24.646734130634773
3214,-24.65409383624655
3215,-24.661453541858325
3216,-24.6688132474701
3217,-24.676172953081878
3218,-24.68353265869365
3219,-24.690892364305427
3220,-24.698252069917203
3221,-24.70561177552898
3222,-24.712971481140755
3223,-24.720331186752528
3224,-24.727690892364304
3225,-24.73505059797608
3226,-24.742410303587857
3227,-24.749770009199633
3228,-24.757129714811406
3229,-24.764489420423182
3230,-24.771849126034958
3231,-24.779208831646734
3232,-24.78656853725851
3233,-24.793928242870287
3234,-24.80128794848206
3235,-24.808647654093836
3236,-24.816007359705612
3237,-24.823367065317388
3238,-24.830726770929164
3239,-24.838086476540937
3240,-24.845446182152713
3241,-24.85280588776449
3242,-24.860165593376266
3243,-24.867525298988042
3244,-24.874885004599815
3245,-24.88224471021159
3246,-24.889604415823367
3247,-24.896964121435143
3248,-24.90432382704692
3249,-24.911683532658692
3250,-24.91904323827047
3251,-24.926402943882245
3252,-24.93376264949402
3253,-24.941122355105797
3254,-24.94848206071757
3255,-24.955841766329346
3256,-24.963201471941122
3257,-24.9705611775529
3258,-24.977920883164675
3259,-24.985280588776448
3260,-24.992640294388224
3261,-25.0
